%YAML 1.1
%TAG !u! tag:unity3d.com,2011:
--- !u!114 &11400000
MonoBehaviour:
  m_ObjectHideFlags: 0
  m_PrefabParentObject: {fileID: 0}
  m_PrefabInternal: {fileID: 0}
  m_GameObject: {fileID: 0}
  m_Enabled: 1
  m_EditorHideFlags: 0
  m_Script: {fileID: 11500000, guid: d5188d27a060d1f47bb269ca7377651f, type: 3}
  m_Name: Day1DarkAssistentFrozen
  m_EditorClassIdentifier: 
  uniqueCustomerName: 
  dialoguesList:
  - 
  requiredWeaponType: 0
  requiredElementType: 0
