%YAML 1.1
%TAG !u! tag:unity3d.com,2011:
--- !u!114 &11400000
MonoBehaviour:
  m_ObjectHideFlags: 0
  m_PrefabParentObject: {fileID: 0}
  m_PrefabInternal: {fileID: 0}
  m_GameObject: {fileID: 0}
  m_Enabled: 1
  m_EditorHideFlags: 0
  m_Script: {fileID: 11500000, guid: d68262fe34eb48c488c22bea441514aa, type: 3}
  m_Name: Day1Bowmaster
  m_EditorClassIdentifier: 
  characterType: 1
  CharactersDialogues:
  - Good bow can help you not only in hunt.
  - Game with apple can test your skill, but in prison it's nothing
